4.DSD/WEEK10/W10P5_tb.vcd
$date
	Thu Nov  3 11:26:38 2022
$end
$version
	Icarus Verilog
$end
$timescale
	1ns
$end
$scope module W10P5_tb $end
$var wire 1 ! out $end
$var reg 1 " Resetn $end
$var reg 1 # clock $end
$var reg 1 $ i $end
$scope module f1 $end
$var wire 1 " Resetn $end
$var wire 1 # clock $end
$var wire 1 $ i $end
$var wire 1 ! out $end
$var wire 5 % c [4:0] $end
$scope module s0 $end
$var wire 1 $ D $end
$var wire 1 " Resetn $end
$var wire 1 # clock $end
$var reg 1 & Q $end
$upscope $end
$scope module s1 $end
$var wire 1 ' D $end
$var wire 1 " Resetn $end
$var wire 1 # clock $end
$var reg 1 ( Q $end
$upscope $end
$scope module s2 $end
$var wire 1 ) D $end
$var wire 1 " Resetn $end
$var wire 1 # clock $end
$var reg 1 * Q $end
$upscope $end
$scope module s3 $end
$var wire 1 + D $end
$var wire 1 " Resetn $end
$var wire 1 # clock $end
$var reg 1 , Q $end
$upscope $end
$scope module s4 $end
$var wire 1 - D $end
$var wire 1 " Resetn $end
$var wire 1 # clock $end
$var reg 1 . Q $end
$upscope $end
$scope module s5 $end
$var wire 1 / D $end
$var wire 1 " Resetn $end
$var wire 1 # clock $end
$var reg 1 ! Q $end
$upscope $end
$upscope $end
$upscope $end
$enddefinitions $end
#0
$dumpvars
x/
x.
x-
x,
x+
x*
x)
x(
x'
x&
bx %
1$
0#
1"
x!
$end
#20
1'
bx1 %
1&
1#
#40
0#
0$
#60
1)
0'
1(
bx10 %
0&
1#
#80
0#
#100
0)
1+
0(
bx100 %
1*
1#
#120
0#
#140
1-
0+
1,
bx1000 %
0*
1#
#160
0#
1$
#180
1'
0-
1/
1&
0,
b10001 %
1.
1#
#200
0#
#220
0/
1)
1!
0.
b11 %
1(
1#
#240
0#
#260
1+
b111 %
1*
0!
1#
#280
0#
0$
#300
1-
0'
1,
b1110 %
0&
1#
#320
0#
#340
0)
1/
0(
b11100 %
1.
1#
#360
0#
#380
0+
1!
b11000 %
0*
1#
#400
0#
#420
0-
b10000 %
0,
1#
#440
0#
#460
0/
b0 %
0.
1#
#480
0#
#500
0!
1#
