4.DSD/WEEK10/W10P3_tb.vcd
$date
	Thu Nov  3 11:18:13 2022
$end
$version
	Icarus Verilog
$end
$timescale
	1ns
$end
$scope module W10P3_tb $end
$var wire 1 ! Q $end
$var reg 1 " J $end
$var reg 1 # K $end
$var reg 1 $ Resetn $end
$var reg 1 % clock $end
$scope module f1 $end
$var wire 1 " J $end
$var wire 1 # K $end
$var wire 1 $ Resetn $end
$var wire 1 % clock $end
$var wire 2 & c [1:0] $end
$var reg 1 ! Q $end
$upscope $end
$upscope $end
$enddefinitions $end
#0
$dumpvars
b0 &
0%
1$
0#
0"
x!
$end
#20
0$
1%
#40
b1 &
1#
0%
#60
1!
0#
b10 &
1"
1%
#80
b11 &
1#
0%
#100
0!
1%
#120
0%
#140
1!
1%
#160
0%
#180
0!
1%
#200
0%
#220
1!
1%
#240
0%
#260
0!
1%
#280
0%
#300
1!
1%
#320
0%
#340
0!
1%
#360
0%
#380
1!
1%
#400
0%
#420
0!
1%
#440
0%
#460
1!
1%
#480
0%
#500
0!
1%
#520
0%
#540
1!
1%
#560
0%
#580
0!
1%
#600
0%
#620
1!
1%
#640
0%
#660
0!
1%
#680
0%
#700
1!
1%
#720
0%
#740
0!
1%
#760
0%
#780
1!
1%
#800
0%
#820
0!
1%
#840
0%
#860
1!
1%
#880
0%
#900
0!
1%
#920
0%
#940
1!
1%
#960
0%
#980
0!
1%
#1000
0%
#1020
1!
1%
#1040
0%
#1060
0!
1%
#1080
0%
#1100
1!
1%
#1120
0%
#1140
0!
1%
#1160
0%
#1180
1!
1%
#1200
0%
#1220
0!
1%
#1240
0%
#1260
1!
1%
#1280
0%
#1300
0!
1%
#1320
0%
#1340
1!
1%
#1360
0%
#1380
0!
1%
#1400
0%
#1420
1!
1%
#1440
0%
#1460
0!
1%
#1480
0%
#1500
1!
1%
#1520
0%
#1540
0!
1%
#1560
0%
#1580
1!
1%
#1600
0%
#1620
0!
1%
#1640
0%
#1660
1!
1%
#1680
0%
#1700
0!
1%
#1720
0%
#1740
1!
1%
#1760
0%
#1780
0!
1%
#1800
0%
#1820
1!
1%
#1840
0%
#1860
0!
1%
#1880
0%
#1900
1!
1%
#1920
0%
#1940
0!
1%
#1960
0%
#1980
1!
1%
#2000
0%
#2020
0!
1%
#2040
0%
#2060
1!
1%
#2080
0%
#2100
0!
1%
#2120
0%
#2140
1!
1%
#2160
0%
#2180
0!
1%
#2200
0%
#2220
1!
1%
#2240
0%
#2260
0!
1%
#2280
0%
#2300
1!
1%
#2320
0%
#2340
0!
1%
#2360
0%
#2380
1!
1%
#2400
0%
#2420
0!
1%
#2440
0%
#2460
1!
1%
#2480
0%
#2500
0!
1%
#2520
0%
#2540
1!
1%
#2560
0%
#2580
0!
1%
#2600
0%
#2620
1!
1%
#2640
0%
#2660
0!
1%
#2680
0%
#2700
1!
1%
#2720
0%
#2740
0!
1%
#2760
0%
#2780
1!
1%
#2800
0%
#2820
0!
1%
#2840
0%
#2860
1!
1%
#2880
0%
#2900
0!
1%
#2920
0%
#2940
1!
1%
#2960
0%
#2980
0!
1%
#3000
0%
#3020
1!
1%
#3040
0%
#3060
0!
1%
#3080
0%
#3100
1!
1%
#3120
0%
#3140
0!
1%
#3160
0%
#3180
1!
1%
#3200
0%
#3220
0!
1%
#3240
0%
#3260
1!
1%
#3280
0%
#3300
0!
1%
#3320
0%
#3340
1!
1%
#3360
0%
#3380
0!
1%
#3400
0%
#3420
1!
1%
#3440
0%
#3460
0!
1%
#3480
0%
#3500
1!
1%
#3520
0%
#3540
0!
1%
#3560
0%
#3580
1!
1%
#3600
0%
#3620
0!
1%
#3640
0%
#3660
1!
1%
#3680
0%
#3700
0!
1%
#3720
0%
#3740
1!
1%
#3760
0%
#3780
0!
1%
#3800
0%
#3820
1!
1%
#3840
0%
#3860
0!
1%
#3880
0%
#3900
1!
1%
#3920
0%
#3940
0!
1%
#3960
0%
#3980
1!
1%
#4000
0%
#4020
0!
1%
#4040
0%
#4060
1!
1%
#4080
0%
#4100
0!
1%
#4120
0%
#4140
1!
1%
#4160
0%
#4180
0!
1%
#4200
0%
#4220
1!
1%
#4240
0%
#4260
0!
1%
#4280
0%
#4300
1!
1%
#4320
0%
#4340
0!
1%
#4360
0%
#4380
1!
1%
#4400
0%
#4420
0!
1%
#4440
0%
#4460
1!
1%
#4480
0%
#4500
0!
1%
#4520
0%
#4540
1!
1%
#4560
0%
#4580
0!
1%
#4600
0%
#4620
1!
1%
#4640
0%
#4660
0!
1%
#4680
0%
#4700
1!
1%
#4720
0%
#4740
0!
1%
#4760
0%
#4780
1!
1%
#4800
0%
#4820
0!
1%
#4840
0%
#4860
1!
1%
#4880
0%
#4900
0!
1%
#4920
0%
#4940
1!
1%
#4960
0%
#4980
0!
1%
#5000
0%
#5020
1!
1%
#5040
0%
#5060
0!
1%
#5080
0%
#5100
1!
1%
#5120
0%
#5140
0!
1%
#5160
0%
#5180
1!
1%
#5200
0%
#5220
0!
1%
#5240
0%
#5260
1!
1%
#5280
0%
#5300
0!
1%
#5320
0%
#5340
1!
1%
#5360
0%
#5380
0!
1%
#5400
0%
#5420
1!
1%
#5440
0%
#5460
0!
1%
#5480
0%
#5500
1!
1%
#5520
0%
#5540
0!
1%
#5560
0%
#5580
1!
1%
#5600
0%
#5620
0!
1%
#5640
0%
#5660
1!
1%
#5680
0%
#5700
0!
1%
#5720
0%
#5740
1!
1%
#5760
0%
#5780
0!
1%
#5800
0%
#5820
1!
1%
#5840
0%
#5860
0!
1%
#5880
0%
#5900
1!
1%
#5920
0%
#5940
0!
1%
#5960
0%
#5980
1!
1%
#6000
0%
#6020
0!
1%
#6040
0%
#6060
1!
1%
#6080
0%
#6100
0!
1%
#6120
0%
#6140
1!
1%
#6160
0%
#6180
0!
1%
#6200
0%
#6220
1!
1%
#6240
0%
#6260
0!
1%
#6280
0%
#6300
1!
1%
#6320
0%
#6340
0!
1%
#6360
0%
#6380
1!
1%
#6400
0%
#6420
0!
1%
#6440
0%
#6460
1!
1%
#6480
0%
#6500
0!
1%
#6520
0%
#6540
1!
1%
#6560
0%
#6580
0!
1%
#6600
0%
#6620
1!
1%
#6640
0%
#6660
0!
1%
#6680
0%
#6700
1!
1%
#6720
0%
#6740
0!
1%
#6760
0%
#6780
1!
1%
#6800
0%
#6820
0!
1%
#6840
0%
#6860
1!
1%
#6880
0%
#6900
0!
1%
#6920
0%
#6940
1!
1%
#6960
0%
#6980
0!
1%
#7000
0%
#7020
1!
1%
#7040
0%
#7060
0!
1%
#7080
0%
#7100
1!
1%
#7120
0%
#7140
0!
1%
#7160
0%
#7180
1!
1%
#7200
0%
#7220
0!
1%
#7240
0%
#7260
1!
1%
#7280
0%
#7300
0!
1%
#7320
0%
#7340
1!
1%
#7360
0%
#7380
0!
1%
#7400
0%
#7420
1!
1%
#7440
0%
#7460
0!
1%
#7480
0%
#7500
1!
1%
#7520
0%
#7540
0!
1%
#7560
0%
#7580
1!
1%
#7600
0%
#7620
0!
1%
#7640
0%
#7660
1!
1%
#7680
0%
#7700
0!
1%
#7720
0%
#7740
1!
1%
#7760
0%
#7780
0!
1%
#7800
0%
#7820
1!
1%
#7840
0%
#7860
0!
1%
#7880
0%
#7900
1!
1%
#7920
0%
#7940
0!
1%
#7960
0%
#7980
1!
1%
#8000
0%
#8020
0!
1%
#8040
0%
#8060
1!
1%
#8080
0%
#8100
0!
1%
#8120
0%
#8140
1!
1%
#8160
0%
#8180
0!
1%
#8200
0%
#8220
1!
1%
#8240
0%
#8260
0!
1%
#8280
0%
#8300
1!
1%
#8320
0%
#8340
0!
1%
#8360
0%
#8380
1!
1%
#8400
0%
#8420
0!
1%
#8440
0%
#8460
1!
1%
#8480
0%
#8500
0!
1%
#8520
0%
#8540
1!
1%
#8560
0%
#8580
0!
1%
#8600
0%
#8620
1!
1%
#8640
0%
#8660
0!
1%
#8680
0%
#8700
1!
1%
#8720
0%
#8740
0!
1%
#8760
0%
#8780
1!
1%
#8800
0%
#8820
0!
1%
#8840
0%
#8860
1!
1%
#8880
0%
#8900
0!
1%
#8920
0%
#8940
1!
1%
#8960
0%
#8980
0!
1%
#9000
0%
#9020
1!
1%
#9040
0%
#9060
0!
1%
#9080
0%
#9100
1!
1%
#9120
0%
#9140
0!
1%
#9160
0%
#9180
1!
1%
#9200
0%
#9220
0!
1%
#9240
0%
#9260
1!
1%
#9280
0%
#9300
0!
1%
#9320
0%
#9340
1!
1%
#9360
0%
#9380
0!
1%
#9400
0%
#9420
1!
1%
#9440
0%
#9460
0!
1%
#9480
0%
#9500
1!
1%
#9520
0%
#9540
0!
1%
#9560
0%
#9580
1!
1%
#9600
0%
#9620
0!
1%
#9640
0%
#9660
1!
1%
#9680
0%
#9700
0!
1%
#9720
0%
#9740
1!
1%
#9760
0%
#9780
0!
1%
#9800
0%
#9820
1!
1%
#9840
0%
#9860
0!
1%
#9880
0%
#9900
1!
1%
#9920
0%
#9940
0!
1%
#9960
0%
#9980
1!
1%
#10000
0%
#10020
0!
1%
#10040
0%
#10060
1!
1%
#10080
0%
#10100
0!
1%
#10120
0%
#10140
1!
1%
#10160
0%
#10180
0!
1%
#10200
0%
#10220
1!
1%
#10240
0%
#10260
0!
1%
#10280
0%
#10300
1!
1%
#10320
0%
#10340
0!
1%
#10360
0%
#10380
1!
1%
#10400
0%
#10420
0!
1%
#10440
0%
#10460
1!
1%
#10480
0%
#10500
0!
1%
#10520
0%
#10540
1!
1%
#10560
0%
#10580
0!
1%
#10600
0%
#10620
1!
1%
#10640
0%
#10660
0!
1%
#10680
0%
#10700
1!
1%
#10720
0%
#10740
0!
1%
#10760
0%
#10780
1!
1%
#10800
0%
#10820
0!
1%
#10840
0%
#10860
1!
1%
#10880
0%
#10900
0!
1%
#10920
0%
#10940
1!
1%
#10960
0%
#10980
0!
1%
#11000
0%
#11020
1!
1%
#11040
0%
#11060
0!
1%
#11080
0%
#11100
1!
1%
#11120
0%
#11140
0!
1%
#11160
0%
#11180
1!
1%
#11200
0%
#11220
0!
1%
#11240
0%
#11260
1!
1%
#11280
0%
#11300
0!
1%
#11320
0%
#11340
1!
1%
#11360
0%
#11380
0!
1%
#11400
0%
#11420
1!
1%
#11440
0%
#11460
0!
1%
#11480
0%
#11500
1!
1%
#11520
0%
#11540
0!
1%
#11560
0%
#11580
1!
1%
#11600
0%
#11620
0!
1%
#11640
0%
#11660
1!
1%
#11680
0%
#11700
0!
1%
#11720
0%
#11740
1!
1%
#11760
0%
#11780
0!
1%
#11800
0%
#11820
1!
1%
#11840
0%
#11860
0!
1%
#11880
0%
#11900
1!
1%
#11920
0%
#11940
0!
1%
#11960
0%
#11980
1!
1%
#12000
0%
#12020
0!
1%
#12040
0%
#12060
1!
1%
#12080
0%
#12100
0!
1%
#12120
0%
#12140
1!
1%
#12160
0%
#12180
0!
1%
#12200
0%
#12220
1!
1%
#12240
0%
#12260
0!
1%
#12280
0%
#12300
1!
1%
#12320
0%
#12340
0!
1%
#12360
0%
#12380
1!
1%
#12400
0%
#12420
0!
1%
#12440
0%
#12460
1!
1%
#12480
0%
#12500
0!
1%
#12520
0%
#12540
1!
1%
#12560
0%
#12580
0!
1%
#12600
0%
#12620
1!
1%
#12640
0%
#12660
0!
1%
#12680
0%
#12700
1!
1%
#12720
0%
#12740
0!
1%
#12760
0%
#12780
1!
1%
#12800
0%
#12820
0!
1%
#12840
0%
#12860
1!
1%
#12880
0%
#12900
0!
1%
#12920
0%
#12940
1!
1%
#12960
0%
#12980
0!
1%
#13000
0%
#13020
1!
1%
#13040
0%
#13060
0!
1%
#13080
0%
#13100
1!
1%
#13120
0%
#13140
0!
1%
#13160
0%
#13180
1!
1%
#13200
0%
#13220
0!
1%
#13240
0%
#13260
1!
1%
#13280
0%
#13300
0!
1%
#13320
0%
#13340
1!
1%
#13360
0%
#13380
0!
1%
#13400
0%
#13420
1!
1%
#13440
0%
#13460
0!
1%
#13480
0%
#13500
1!
1%
#13520
0%
#13540
0!
1%
#13560
0%
#13580
1!
1%
#13600
0%
#13620
0!
1%
#13640
0%
#13660
1!
1%
#13680
0%
#13700
0!
1%
#13720
0%
#13740
1!
1%
#13760
0%
#13780
0!
1%
#13800
0%
#13820
1!
1%
#13840
0%
#13860
0!
1%
#13880
0%
#13900
1!
1%
#13920
0%
#13940
0!
1%
#13960
0%
#13980
1!
1%
#14000
0%
#14020
0!
1%
#14040
0%
#14060
1!
1%
#14080
0%
#14100
0!
1%
#14120
0%
#14140
1!
1%
#14160
0%
#14180
0!
1%
#14200
0%
#14220
1!
1%
#14240
0%
#14260
0!
1%
#14280
0%
#14300
1!
1%
#14320
0%
#14340
0!
1%
#14360
0%
#14380
1!
1%
#14400
0%
#14420
0!
1%
#14440
0%
#14460
1!
1%
#14480
0%
#14500
0!
1%
#14520
0%
#14540
1!
1%
#14560
0%
#14580
0!
1%
#14600
0%
#14620
1!
1%
#14640
0%
#14660
0!
1%
#14680
0%
#14700
1!
1%
#14720
0%
#14740
0!
1%
#14760
0%
#14780
1!
1%
#14800
0%
#14820
0!
1%
#14840
0%
#14860
1!
1%
#14880
0%
#14900
0!
1%
#14920
0%
#14940
1!
1%
#14960
0%
#14980
0!
1%
#15000
0%
#15020
1!
1%
#15040
0%
#15060
0!
1%
#15080
0%
#15100
1!
1%
#15120
0%
#15140
0!
1%
#15160
0%
#15180
1!
1%
#15200
0%
#15220
0!
1%
#15240
0%
#15260
1!
1%
#15280
0%
#15300
0!
1%
#15320
0%
#15340
1!
1%
#15360
0%
#15380
0!
1%
#15400
0%
#15420
1!
1%
#15440
0%
#15460
0!
1%
#15480
0%
#15500
1!
1%
#15520
0%
#15540
0!
1%
#15560
0%
#15580
1!
1%
#15600
0%
#15620
0!
1%
#15640
0%
#15660
1!
1%
#15680
0%
#15700
0!
1%
#15720
0%
#15740
1!
1%
#15760
0%
#15780
0!
1%
#15800
0%
#15820
1!
1%
#15840
0%
#15860
0!
1%
#15880
0%
#15900
1!
1%
#15920
0%
#15940
0!
1%
#15960
0%
#15980
1!
1%
#16000
0%
#16020
0!
1%
#16040
0%
#16060
1!
1%
#16080
0%
#16100
0!
1%
#16120
0%
#16140
1!
1%
#16160
0%
#16180
0!
1%
#16200
0%
#16220
1!
1%
#16240
0%
#16260
0!
1%
#16280
0%
#16300
1!
1%
#16320
0%
#16340
0!
1%
#16360
0%
#16380
1!
1%
#16400
0%
#16420
0!
1%
#16440
0%
#16460
1!
1%
#16480
0%
#16500
0!
1%
#16520
0%
#16540
1!
1%
#16560
0%
#16580
0!
1%
#16600
0%
#16620
1!
1%
#16640
0%
#16660
0!
1%
#16680
0%
#16700
1!
1%
#16720
0%
#16740
0!
1%
#16760
0%
#16780
1!
1%
#16800
0%
#16820
0!
1%
#16840
0%
#16860
1!
1%
#16880
0%
#16900
0!
1%
#16920
0%
#16940
1!
1%
#16960
0%
#16980
0!
1%
#17000
0%
#17020
1!
1%
#17040
0%
#17060
0!
1%
#17080
0%
#17100
1!
1%
#17120
0%
#17140
0!
1%
#17160
0%
#17180
1!
1%
#17200
0%
#17220
0!
1%
#17240
0%
#17260
1!
1%
#17280
0%
#17300
0!
1%
#17320
0%
#17340
1!
1%
#17360
0%
#17380
0!
1%
#17400
0%
#17420
1!
1%
#17440
0%
#17460
0!
1%
#17480
0%
#17500
1!
1%
#17520
0%
#17540
0!
1%
#17560
0%
#17580
1!
1%
#17600
0%
#17620
0!
1%
#17640
0%
#17660
1!
1%
#17680
0%
#17700
0!
1%
#17720
0%
#17740
1!
1%
#17760
0%
#17780
0!
1%
#17800
0%
#17820
1!
1%
#17840
0%
#17860
0!
1%
#17880
0%
#17900
1!
1%
#17920
0%
#17940
0!
1%
#17960
0%
#17980
1!
1%
#18000
0%
#18020
0!
1%
#18040
0%
#18060
1!
1%
#18080
0%
#18100
0!
1%
#18120
0%
#18140
1!
1%
#18160
0%
#18180
0!
1%
#18200
0%
#18220
1!
1%
#18240
0%
#18260
0!
1%
#18280
0%
#18300
1!
1%
#18320
0%
#18340
0!
1%
#18360
0%
#18380
1!
1%
#18400
0%
#18420
0!
1%
#18440
0%
#18460
1!
1%
#18480
0%
#18500
0!
1%
#18520
0%
#18540
1!
1%
#18560
0%
#18580
0!
1%
#18600
0%
#18620
1!
1%
#18640
0%
#18660
0!
1%
#18680
0%
#18700
1!
1%
#18720
0%
#18740
0!
1%
#18760
0%
#18780
1!
1%
#18800
0%
#18820
0!
1%
#18840
0%
#18860
1!
1%
#18880
0%
#18900
0!
1%
#18920
0%
#18940
1!
1%
#18960
0%
#18980
0!
1%
#19000
0%
#19020
1!
1%
#19040
0%
#19060
0!
1%
#19080
0%
#19100
1!
1%
#19120
0%
#19140
0!
1%
#19160
0%
#19180
1!
1%
#19200
0%
#19220
0!
1%
#19240
0%
#19260
1!
1%
#19280
0%
#19300
0!
1%
#19320
0%
#19340
1!
1%
#19360
0%
#19380
0!
1%
#19400
0%
#19420
1!
1%
#19440
0%
#19460
0!
1%
#19480
0%
#19500
1!
1%
#19520
0%
#19540
0!
1%
#19560
0%
#19580
1!
1%
#19600
0%
#19620
0!
1%
#19640
0%
#19660
1!
1%
#19680
0%
#19700
0!
1%
#19720
0%
#19740
1!
1%
#19760
0%
#19780
0!
1%
#19800
0%
#19820
1!
1%
#19840
0%
#19860
0!
1%
#19880
0%
#19900
1!
1%
#19920
0%
#19940
0!
1%
#19960
0%
#19980
1!
1%
#20000
0%
#20020
0!
1%
#20040
0%
#20060
1!
1%
#20080
0%
#20100
0!
1%
#20120
0%
#20140
1!
1%
#20160
0%
#20180
0!
1%
#20200
0%
#20220
1!
1%
#20240
0%
#20260
0!
1%
#20280
0%
#20300
1!
1%
#20320
0%
#20340
0!
1%
#20360
0%
#20380
1!
1%
#20400
0%
#20420
0!
1%
#20440
0%
#20460
1!
1%
#20480
0%
#20500
0!
1%
#20520
0%
#20540
1!
1%
#20560
0%
#20580
0!
1%
#20600
0%
#20620
1!
1%
#20640
0%
#20660
0!
1%
#20680
0%
#20700
1!
1%
#20720
0%
#20740
0!
1%
#20760
0%
#20780
1!
1%
#20800
0%
#20820
0!
1%
#20840
0%
#20860
1!
1%
#20880
0%
#20900
0!
1%
#20920
0%
#20940
1!
1%
#20960
0%
#20980
0!
1%
#21000
0%
#21020
1!
1%
#21040
0%
#21060
0!
1%
#21080
0%
#21100
1!
1%
#21120
0%
#21140
0!
1%
#21160
0%
#21180
1!
1%
#21200
0%
#21220
0!
1%
#21240
0%
#21260
1!
1%
#21280
0%
#21300
0!
1%
#21320
0%
#21340
1!
1%
#21360
0%
#21380
0!
1%
#21400
0%
#21420
1!
1%
#21440
0%
#21460
0!
1%
#21480
0%
#21500
1!
1%
#21520
0%
#21540
0!
1%
#21560
0%
#21580
1!
1%
#21600
0%
#21620
0!
1%
#21640
0%
#21660
1!
1%
#21680
0%
#21700
0!
1%
#21720
0%
#21740
1!
1%
#21760
0%
#21780
0!
1%
#21800
0%
#21820
1!
1%
#21840
0%
#21860
0!
1%
#21880
0%
#21900
1!
1%
#21920
0%
#21940
0!
1%
#21960
0%
#21980
1!
1%
#22000
0%
#22020
0!
1%
#22040
0%
#22060
1!
1%
#22080
0%
#22100
0!
1%
#22120
0%
#22140
1!
1%
#22160
0%
#22180
0!
1%
#22200
0%
#22220
1!
1%
#22240
0%
#22260
0!
1%
#22280
0%
#22300
1!
1%
#22320
0%
#22340
0!
1%
#22360
0%
#22380
1!
1%
#22400
0%
#22420
0!
1%
#22440
0%
#22460
1!
1%
#22480
0%
#22500
0!
1%
#22520
0%
#22540
1!
1%
#22560
0%
#22580
0!
1%
#22600
0%
#22620
1!
1%
#22640
0%
#22660
0!
1%
#22680
0%
#22700
1!
1%
#22720
0%
#22740
0!
1%
#22760
0%
#22780
1!
1%
#22800
0%
#22820
0!
1%
#22840
0%
#22860
1!
1%
#22880
0%
#22900
0!
1%
#22920
0%
#22940
1!
1%
#22960
0%
#22980
0!
1%
#23000
0%
#23020
1!
1%
#23040
0%
#23060
0!
1%
#23080
0%
#23100
1!
1%
#23120
0%
#23140
0!
1%
#23160
0%
#23180
1!
1%
#23200
0%
#23220
0!
1%
#23240
0%
#23260
1!
1%
#23280
0%
#23300
0!
1%
#23320
0%
#23340
1!
1%
#23360
0%
#23380
0!
1%
#23400
0%
#23420
1!
1%
#23440
0%
#23460
0!
1%
#23480
0%
#23500
1!
1%
#23520
0%
#23540
0!
1%
#23560
0%
#23580
1!
1%
#23600
0%
#23620
0!
1%
#23640
0%
#23660
1!
1%
#23680
0%
#23700
0!
1%
#23720
0%
#23740
1!
1%
#23760
0%
#23780
0!
1%
#23800
0%
#23820
1!
1%
#23840
0%
#23860
0!
1%
#23880
0%
#23900
1!
1%
#23920
0%
#23940
0!
1%
#23960
0%
#23980
1!
1%
#24000
0%
#24020
0!
1%
#24040
0%
#24060
1!
1%
#24080
0%
#24100
0!
1%
#24120
0%
#24140
1!
1%
#24160
0%
#24180
0!
1%
#24200
0%
#24220
1!
1%
#24240
0%
#24260
0!
1%
#24280
0%
#24300
1!
1%
#24320
0%
#24340
0!
1%
#24360
0%
#24380
1!
1%
#24400
0%
#24420
0!
1%
#24440
0%
#24460
1!
1%
#24480
0%
#24500
0!
1%
#24520
0%
#24540
1!
1%
#24560
0%
#24580
0!
1%
#24600
0%
#24620
1!
1%
#24640
0%
#24660
0!
1%
#24680
0%
#24700
1!
1%
#24720
0%
#24740
0!
1%
#24760
0%
#24780
1!
1%
#24800
0%
#24820
0!
1%
#24840
0%
#24860
1!
1%
#24880
0%
#24900
0!
1%
#24920
0%
#24940
1!
1%
#24960
0%
#24980
0!
1%
#25000
0%
#25020
1!
1%
#25040
0%
#25060
0!
1%
#25080
0%
#25100
1!
1%
#25120
0%
#25140
0!
1%
#25160
0%
#25180
1!
1%
#25200
0%
#25220
0!
1%
#25240
0%
#25260
1!
1%
#25280
0%
#25300
0!
1%
#25320
0%
#25340
1!
1%
#25360
0%
#25380
0!
1%
#25400
0%
#25420
1!
1%
#25440
0%
#25460
0!
1%
#25480
0%
#25500
1!
1%
#25520
0%
#25540
0!
1%
#25560
0%
#25580
1!
1%
#25600
0%
#25620
0!
1%
#25640
0%
#25660
1!
1%
#25680
0%
#25700
0!
1%
#25720
0%
#25740
1!
1%
#25760
0%
#25780
0!
1%
#25800
0%
#25820
1!
1%
#25840
0%
#25860
0!
1%
#25880
0%
#25900
1!
1%
#25920
0%
#25940
0!
1%
#25960
0%
#25980
1!
1%
#26000
0%
#26020
0!
1%
#26040
0%
#26060
1!
1%
#26080
0%
#26100
0!
1%
#26120
0%
#26140
1!
1%
#26160
0%
#26180
0!
1%
#26200
0%
#26220
1!
1%
#26240
0%
#26260
0!
1%
#26280
0%
#26300
1!
1%
#26320
0%
#26340
0!
1%
#26360
0%
#26380
1!
1%
#26400
0%
#26420
0!
1%
#26440
0%
#26460
1!
1%
#26480
0%
#26500
0!
1%
#26520
0%
#26540
1!
1%
#26560
0%
#26580
0!
1%
#26600
0%
#26620
1!
1%
#26640
0%
#26660
0!
1%
#26680
0%
#26700
1!
1%
#26720
0%
#26740
0!
1%
#26760
0%
#26780
1!
1%
#26800
0%
#26820
0!
1%
#26840
0%
#26860
1!
1%
#26880
0%
#26900
0!
1%
#26920
0%
#26940
1!
1%
#26960
0%
#26980
0!
1%
#27000
0%
#27020
1!
1%
#27040
0%
#27060
0!
1%
#27080
0%
#27100
1!
1%
#27120
0%
#27140
0!
1%
#27160
0%
#27180
1!
1%
#27200
0%
#27220
0!
1%
#27240
0%
#27260
1!
1%
#27280
0%
#27300
0!
1%
#27320
0%
#27340
1!
1%
#27360
0%
#27380
0!
1%
#27400
0%
#27420
1!
1%
#27440
0%
#27460
0!
1%
#27480
0%
#27500
1!
1%
#27520
0%
#27540
0!
1%
#27560
0%
#27580
1!
1%
#27600
0%
#27620
0!
1%
#27640
0%
#27660
1!
1%
#27680
0%
#27700
0!
1%
#27720
0%
#27740
1!
1%
#27760
0%
#27780
0!
1%
#27800
0%
#27820
1!
1%
#27840
0%
#27860
0!
1%
#27880
0%
#27900
1!
1%
#27920
0%
#27940
0!
1%
#27960
0%
#27980
1!
1%
#28000
0%
#28020
0!
1%
#28040
0%
#28060
1!
1%
#28080
0%
#28100
0!
1%
#28120
0%
#28140
1!
1%
#28160
0%
#28180
0!
1%
#28200
0%
#28220
1!
1%
#28240
0%
#28260
0!
1%
#28280
0%
#28300
1!
1%
#28320
0%
#28340
0!
1%
#28360
0%
#28380
1!
1%
#28400
0%
#28420
0!
1%
#28440
0%
#28460
1!
1%
#28480
0%
#28500
0!
1%
#28520
0%
#28540
1!
1%
#28560
0%
#28580
0!
1%
#28600
0%
#28620
1!
1%
#28640
0%
#28660
0!
1%
#28680
0%
#28700
1!
1%
#28720
0%
#28740
0!
1%
#28760
0%
#28780
1!
1%
#28800
0%
#28820
0!
1%
#28840
0%
#28860
1!
1%
#28880
0%
#28900
0!
1%
#28920
0%
#28940
1!
1%
#28960
0%
#28980
0!
1%
#29000
0%
#29020
1!
1%
#29040
0%
#29060
0!
1%
#29080
0%
#29100
1!
1%
#29120
0%
#29140
0!
1%
#29160
0%
#29180
1!
1%
#29200
0%
#29220
0!
1%
#29240
0%
#29260
1!
1%
#29280
0%
#29300
0!
1%
#29320
0%
#29340
1!
1%
#29360
0%
#29380
0!
1%
#29400
0%
#29420
1!
1%
#29440
0%
#29460
0!
1%
#29480
0%
#29500
1!
1%
#29520
0%
#29540
0!
1%
#29560
0%
#29580
1!
1%
#29600
0%
#29620
0!
1%
#29640
0%
#29660
1!
1%
#29680
0%
#29700
0!
1%
#29720
0%
#29740
1!
1%
#29760
0%
#29780
0!
1%
#29800
0%
#29820
1!
1%
#29840
0%
#29860
0!
1%
#29880
0%
#29900
1!
1%
#29920
0%
#29940
0!
1%
#29960
0%
#29980
1!
1%
#30000
0%
#30020
0!
1%
#30040
0%
#30060
1!
1%
#30080
0%
#30100
0!
1%
#30120
0%
#30140
1!
1%
#30160
0%
#30180
0!
1%
#30200
0%
#30220
1!
1%
#30240
0%
#30260
0!
1%
#30280
0%
#30300
1!
1%
#30320
0%
#30340
0!
1%
#30360
0%
#30380
1!
1%
#30400
0%
#30420
0!
1%
#30440
0%
#30460
1!
1%
#30480
0%
#30500
0!
1%
#30520
0%
#30540
1!
1%
#30560
0%
#30580
0!
1%
#30600
0%
#30620
1!
1%
#30640
0%
#30660
0!
1%
#30680
0%
#30700
1!
1%
#30720
0%
#30740
0!
1%
#30760
0%
#30780
1!
1%
#30800
0%
#30820
0!
1%
#30840
0%
#30860
1!
1%
#30880
0%
#30900
0!
1%
#30920
0%
#30940
1!
1%
#30960
0%
#30980
0!
1%
#31000
0%
#31020
1!
1%
#31040
0%
#31060
0!
1%
#31080
0%
#31100
1!
1%
#31120
0%
#31140
0!
1%
#31160
0%
#31180
1!
1%
#31200
0%
#31220
0!
1%
#31240
0%
#31260
1!
1%
#31280
0%
#31300
0!
1%
#31320
0%
#31340
1!
1%
#31360
0%
#31380
0!
1%
#31400
0%
#31420
1!
1%
#31440
0%
#31460
0!
1%
#31480
0%
#31500
1!
1%
#31520
0%
#31540
0!
1%
#31560
0%
#31580
1!
1%
#31600
0%
#31620
0!
1%
#31640
0%
#31660
1!
1%
#31680
0%
#31700
0!
1%
#31720
0%
#31740
1!
1%
#31760
0%
#31780
0!
1%
#31800
0%
#31820
1!
1%
#31840
0%
#31860
0!
1%
#31880
0%
#31900
1!
1%
#31920
0%
#31940
0!
1%
#31960
0%
#31980
1!
1%
#32000
0%
#32020
0!
1%
#32040
0%
#32060
1!
1%
#32080
0%
#32100
0!
1%
#32120
0%
#32140
1!
1%
#32160
0%
#32180
0!
1%
#32200
0%
#32220
1!
1%
#32240
0%
#32260
0!
1%
#32280
0%
#32300
1!
1%
#32320
0%
#32340
0!
1%
#32360
0%
#32380
1!
1%
#32400
0%
#32420
0!
1%
#32440
0%
#32460
1!
1%
#32480
0%
#32500
0!
1%
#32520
0%
#32540
1!
1%
#32560
0%
#32580
0!
1%
#32600
0%
#32620
1!
1%
#32640
0%
#32660
0!
1%
#32680
0%
#32700
1!
1%
#32720
0%
#32740
0!
1%
#32760
0%
#32780
1!
1%
#32800
0%
#32820
0!
1%
#32840
0%
#32860
1!
1%
#32880
0%
#32900
0!
1%
#32920
0%
#32940
1!
1%
#32960
0%
#32980
0!
1%
#33000
0%
#33020
1!
1%
#33040
0%
#33060
0!
1%
#33080
0%
#33100
1!
1%
#33120
0%
#33140
0!
1%
#33160
0%
#33180
1!
1%
#33200
0%
#33220
0!
1%
#33240
0%
#33260
1!
1%
#33280
0%
#33300
0!
1%
#33320
0%
#33340
1!
1%
#33360
0%
#33380
0!
1%
#33400
0%
#33420
1!
1%
#33440
0%
#33460
0!
1%
#33480
0%
#33500
1!
1%
#33520
0%
#33540
0!
1%
#33560
0%
#33580
1!
1%
#33600
0%
#33620
0!
1%
#33640
0%
#33660
1!
1%
#33680
0%
#33700
0!
1%
#33720
0%
#33740
1!
1%
#33760
0%
#33780
0!
1%
#33800
0%
#33820
1!
1%
#33840
0%
#33860
0!
1%
#33880
0%
#33900
1!
1%
#33920
0%
#33940
0!
1%
#33960
0%
#33980
1!
1%
#34000
0%
#34020
0!
1%
#34040
0%
#34060
1!
1%
#34080
0%
#34100
0!
1%
#34120
0%
#34140
1!
1%
#34160
0%
#34180
0!
1%
#34200
0%
#34220
1!
1%
#34240
0%
#34260
0!
1%
#34280
0%
#34300
1!
1%
#34320
0%
#34340
0!
1%
#34360
0%
#34380
1!
1%
#34400
0%
#34420
0!
1%
#34440
0%
#34460
1!
1%
#34480
0%
#34500
0!
1%
#34520
0%
#34540
1!
1%
#34560
0%
#34580
0!
1%
#34600
0%
