4.DSD/WEEK8/W8P1_tb.vcd
$date
	Thu Oct 20 09:06:24 2022
$end
$version
	Icarus Verilog
$end
$timescale
	1ns
$end
$scope module W8P1_tb $end
$var wire 8 ! y [0:7] $end
$var reg 1 " En $end
$var reg 3 # w [2:0] $end
$scope module q $end
$var wire 1 " En $end
$var wire 1 $ t1 $end
$var wire 1 % t2 $end
$var wire 3 & w [2:0] $end
$var wire 8 ' y [0:7] $end
$scope module stage0 $end
$var wire 1 $ En $end
$var wire 2 ( w [1:0] $end
$var reg 4 ) y [0:3] $end
$upscope $end
$scope module stage1 $end
$var wire 1 % En $end
$var wire 2 * w [1:0] $end
$var reg 4 + y [0:3] $end
$upscope $end
$upscope $end
$upscope $end
$enddefinitions $end
#0
$dumpvars
b0 +
b0 *
b1000 )
b0 (
b10000000 '
b0 &
0%
1$
b0 #
1"
b10000000 !
$end
#20
b1000000 !
b1000000 '
b100 )
b1 (
b1 *
b1 #
b1 &
#40
b100000 !
b100000 '
b10 )
b10 (
b10 *
b10 #
b10 &
#60
b10000 !
b10000 '
b1 )
b11 (
b11 *
b11 #
b11 &
#80
0$
b1000 +
1%
b1000 !
b1000 '
b0 )
b0 (
b0 *
b100 #
b100 &
#100
b100 !
b100 '
b100 +
b1 (
b1 *
b101 #
b101 &
#120
b10 !
b10 '
b10 +
b10 (
b10 *
b110 #
b110 &
#140
b1 !
b1 '
b1 +
b11 (
b11 *
b111 #
b111 &
